%YAML 1.1
%TAG !u! tag:unity3d.com,2011:
--- !u!1 &3989677240763173780
GameObject:
  m_ObjectHideFlags: 0
  m_CorrespondingSourceObject: {fileID: 0}
  m_PrefabInstance: {fileID: 0}
  m_PrefabAsset: {fileID: 0}
  serializedVersion: 6
  m_Component:
  - component: {fileID: 5592996288264303206}
  - component: {fileID: -2484522576630857977}
  m_Layer: 0
  m_Name: PlayState
  m_TagString: Untagged
  m_Icon: {fileID: 0}
  m_NavMeshLayer: 0
  m_StaticEditorFlags: 0
  m_IsActive: 1
--- !u!4 &5592996288264303206
Transform:
  m_ObjectHideFlags: 0
  m_CorrespondingSourceObject: {fileID: 0}
  m_PrefabInstance: {fileID: 0}
  m_PrefabAsset: {fileID: 0}
  m_GameObject: {fileID: 3989677240763173780}
  m_LocalRotation: {x: 0, y: 0, z: 0, w: 1}
  m_LocalPosition: {x: -0.24448252, y: 2.2711809, z: -0.0675043}
  m_LocalScale: {x: 1, y: 1, z: 1}
  m_ConstrainProportionsScale: 0
  m_Children: []
  m_Father: {fileID: 0}
  m_RootOrder: 0
  m_LocalEulerAnglesHint: {x: 0, y: 0, z: 0}
--- !u!114 &-2484522576630857977
MonoBehaviour:
  m_ObjectHideFlags: 0
  m_CorrespondingSourceObject: {fileID: 0}
  m_PrefabInstance: {fileID: 0}
  m_PrefabAsset: {fileID: 0}
  m_GameObject: {fileID: 3989677240763173780}
  m_Enabled: 1
  m_EditorHideFlags: 0
  m_Script: {fileID: 11500000, guid: 8f9f69c3828a6be1a9e1152ae607e73c, type: 3}
  m_Name: 
  m_EditorClassIdentifier: 
  birdReference: {fileID: 4159325728434763279, guid: 4eb8b5c47b6c97698aa36729ef984467, type: 3}
  pipesSpawnerReference: {fileID: 6608091684725816250, guid: 3b99a5f6b06b51c53b5039521ea27139, type: 3}
  scoreReference: {fileID: 3290049282446235662, guid: 7e012f60540ca32ceb757890f41d3a24, type: 3}
