Library/Bee/artifacts/mvdfrm/Unity.Mathematics.ref.dll_1DE51DC70DF97883.mvfrm
Library/Bee/artifacts/mvdfrm/UnityEngine.UI.ref.dll_F37DC0DEF554539B.mvfrm
Library/Bee/artifacts/mvdfrm/UnityEngine.AIModule.dll_C8ADD7DBD510577F.mvfrm
Library/Bee/artifacts/mvdfrm/UnityEngine.AccessibilityModule.dll_32E66A277EB16B0B.mvfrm
Library/Bee/artifacts/mvdfrm/UnityEngine.AndroidJNIModule.dll_B32A7C4BE1B3DCBD.mvfrm
Library/Bee/artifacts/mvdfrm/UnityEngine.AnimationModule.dll_2DB505EFC8600EF1.mvfrm
Library/Bee/artifacts/mvdfrm/UnityEngine.AssetBundleModule.dll_29ACDD9C7337DE3F.mvfrm
Library/Bee/artifacts/mvdfrm/UnityEngine.AudioModule.dll_7FD6D006A816CBA3.mvfrm
Library/Bee/artifacts/mvdfrm/UnityEngine.ClothModule.dll_E6BF2D018233AA87.mvfrm
Library/Bee/artifacts/mvdfrm/UnityEngine.ClusterInputModule.dll_4D4A6EE5CAD0F387.mvfrm
Library/Bee/artifacts/mvdfrm/UnityEngine.ClusterRendererModule.dll_4883441A701F81AA.mvfrm
Library/Bee/artifacts/mvdfrm/UnityEngine.CoreModule.dll_F8E183B9CA0697B6.mvfrm
Library/Bee/artifacts/mvdfrm/UnityEngine.CrashReportingModule.dll_BD2C1E698746190E.mvfrm
Library/Bee/artifacts/mvdfrm/UnityEngine.DSPGraphModule.dll_1598914207CAF474.mvfrm
Library/Bee/artifacts/mvdfrm/UnityEngine.DirectorModule.dll_10472FD8956A2353.mvfrm
Library/Bee/artifacts/mvdfrm/UnityEngine.GIModule.dll_60EA20E970BF3F99.mvfrm
Library/Bee/artifacts/mvdfrm/UnityEngine.GameCenterModule.dll_DD77C666A7F4CDAE.mvfrm
Library/Bee/artifacts/mvdfrm/UnityEngine.GridModule.dll_D6529FA7E25B2DAD.mvfrm
Library/Bee/artifacts/mvdfrm/UnityEngine.HotReloadModule.dll_AEFDC3F5A3932A73.mvfrm
Library/Bee/artifacts/mvdfrm/UnityEngine.IMGUIModule.dll_B8366F6D6E485F84.mvfrm
Library/Bee/artifacts/mvdfrm/UnityEngine.ImageConversionModule.dll_B47541CAF244399E.mvfrm
Library/Bee/artifacts/mvdfrm/UnityEngine.InputLegacyModule.dll_BAF1F8BB0B299430.mvfrm
Library/Bee/artifacts/mvdfrm/UnityEngine.InputModule.dll_E64C97B71E4EF047.mvfrm
Library/Bee/artifacts/mvdfrm/UnityEngine.JSONSerializeModule.dll_92FDF3637DECCB95.mvfrm
Library/Bee/artifacts/mvdfrm/UnityEngine.LocalizationModule.dll_8B973938624CE680.mvfrm
Library/Bee/artifacts/mvdfrm/UnityEngine.ParticleSystemModule.dll_103E67B5F557A49C.mvfrm
Library/Bee/artifacts/mvdfrm/UnityEngine.PerformanceReportingModule.dll_ED47A0D274D76275.mvfrm
Library/Bee/artifacts/mvdfrm/UnityEngine.Physics2DModule.dll_7A5AF5E0695D0686.mvfrm
Library/Bee/artifacts/mvdfrm/UnityEngine.PhysicsModule.dll_51DEA71D14CE98D4.mvfrm
Library/Bee/artifacts/mvdfrm/UnityEngine.ProfilerModule.dll_428D690F2EC3AA60.mvfrm
Library/Bee/artifacts/mvdfrm/UnityEngine.RuntimeInitializeOnLoadManagerInitializerModule.dll_8E9641AA8F30834F.mvfrm
Library/Bee/artifacts/mvdfrm/UnityEngine.ScreenCaptureModule.dll_ACE5A0E89258F7F7.mvfrm
Library/Bee/artifacts/mvdfrm/UnityEngine.SharedInternalsModule.dll_388680A0697234EE.mvfrm
Library/Bee/artifacts/mvdfrm/UnityEngine.SpriteMaskModule.dll_C6A438F6C9646328.mvfrm
Library/Bee/artifacts/mvdfrm/UnityEngine.SpriteShapeModule.dll_430E0AF728DA1649.mvfrm
Library/Bee/artifacts/mvdfrm/UnityEngine.StreamingModule.dll_E249F34017E7C62F.mvfrm
Library/Bee/artifacts/mvdfrm/UnityEngine.SubstanceModule.dll_BEF50789633AC43D.mvfrm
Library/Bee/artifacts/mvdfrm/UnityEngine.SubsystemsModule.dll_31519F5897AC4B3B.mvfrm
Library/Bee/artifacts/mvdfrm/UnityEngine.TLSModule.dll_1F08EA41848894A8.mvfrm
Library/Bee/artifacts/mvdfrm/UnityEngine.TerrainModule.dll_6C25228BEA8CE1C2.mvfrm
Library/Bee/artifacts/mvdfrm/UnityEngine.TerrainPhysicsModule.dll_10B910890E9A9F29.mvfrm
Library/Bee/artifacts/mvdfrm/UnityEngine.TextCoreFontEngineModule.dll_F57FD331567C8474.mvfrm
Library/Bee/artifacts/mvdfrm/UnityEngine.TextCoreTextEngineModule.dll_3D6809A2E6003D92.mvfrm
Library/Bee/artifacts/mvdfrm/UnityEngine.TextRenderingModule.dll_D62512F3499077EC.mvfrm
Library/Bee/artifacts/mvdfrm/UnityEngine.TilemapModule.dll_0B218A0D0249C2CB.mvfrm
Library/Bee/artifacts/mvdfrm/UnityEngine.UIElementsModule.dll_359000C09AD88732.mvfrm
Library/Bee/artifacts/mvdfrm/UnityEngine.UIElementsNativeModule.dll_E77988A782FABA49.mvfrm
Library/Bee/artifacts/mvdfrm/UnityEngine.UIModule.dll_C421760931575D2B.mvfrm
Library/Bee/artifacts/mvdfrm/UnityEngine.UNETModule.dll_8B87CBA317158D2F.mvfrm
Library/Bee/artifacts/mvdfrm/UnityEngine.UmbraModule.dll_FAAB7C1F353D7716.mvfrm
Library/Bee/artifacts/mvdfrm/UnityEngine.UnityAnalyticsCommonModule.dll_88865E168EC000D3.mvfrm
Library/Bee/artifacts/mvdfrm/UnityEngine.UnityAnalyticsModule.dll_2FDDD87FA17EF698.mvfrm
Library/Bee/artifacts/mvdfrm/UnityEngine.UnityConnectModule.dll_BB0D7DDF13D1216C.mvfrm
Library/Bee/artifacts/mvdfrm/UnityEngine.UnityCurlModule.dll_60D1A721387400DE.mvfrm
Library/Bee/artifacts/mvdfrm/UnityEngine.UnityTestProtocolModule.dll_FA1C041F26EA844C.mvfrm
Library/Bee/artifacts/mvdfrm/UnityEngine.UnityWebRequestAssetBundleModule.dll_C1C4A01EE1CC4B69.mvfrm
Library/Bee/artifacts/mvdfrm/UnityEngine.UnityWebRequestAudioModule.dll_6543F4B0FB422D0D.mvfrm
Library/Bee/artifacts/mvdfrm/UnityEngine.UnityWebRequestModule.dll_C6144974FD38D41D.mvfrm
Library/Bee/artifacts/mvdfrm/UnityEngine.UnityWebRequestTextureModule.dll_66FDB57484879682.mvfrm
Library/Bee/artifacts/mvdfrm/UnityEngine.UnityWebRequestWWWModule.dll_082A4EFED5BFF9FE.mvfrm
Library/Bee/artifacts/mvdfrm/UnityEngine.VFXModule.dll_9FE782B05AF5FE15.mvfrm
Library/Bee/artifacts/mvdfrm/UnityEngine.VRModule.dll_16F39C8ED311E2A3.mvfrm
Library/Bee/artifacts/mvdfrm/UnityEngine.VehiclesModule.dll_880A29580F93F2EE.mvfrm
Library/Bee/artifacts/mvdfrm/UnityEngine.VideoModule.dll_A4E054716AA8E748.mvfrm
Library/Bee/artifacts/mvdfrm/UnityEngine.VirtualTexturingModule.dll_0C063D165BA93AD4.mvfrm
Library/Bee/artifacts/mvdfrm/UnityEngine.WindModule.dll_6F305EE25B3D161F.mvfrm
Library/Bee/artifacts/mvdfrm/UnityEngine.XRModule.dll_49B25F935C4C3001.mvfrm
Library/Bee/artifacts/mvdfrm/UnityEngine.dll_E5D2EA98D3F043FF.mvfrm
Library/Bee/artifacts/mvdfrm/Unity.Burst.Cecil.Mdb.dll_9409E64CA126E9E8.mvfrm
Library/Bee/artifacts/mvdfrm/Unity.Burst.Cecil.Pdb.dll_AB5C5EBC1FDBEB6B.mvfrm
Library/Bee/artifacts/mvdfrm/Unity.Burst.Cecil.Rocks.dll_838806415CC3D6EB.mvfrm
Library/Bee/artifacts/mvdfrm/Unity.Burst.Cecil.dll_2DE6CE42223983EB.mvfrm
Library/Bee/artifacts/mvdfrm/Unity.Burst.Unsafe.dll_BC406F07D48FC838.mvfrm
Library/Bee/artifacts/mvdfrm/Unity.VisualScripting.Antlr3.Runtime.dll_87BAA7824AA684F7.mvfrm