Library/Bee/artifacts/mvdfrm/Unity.VisualScripting.Core.ref.dll_FA56F406C264152A.mvfrm
Library/Bee/artifacts/mvdfrm/Unity.VisualScripting.Flow.ref.dll_4167D45D446D89D9.mvfrm
Library/Bee/artifacts/mvdfrm/UnityEditor.UI.ref.dll_452FB8EBD860BCAB.mvfrm
Library/Bee/artifacts/mvdfrm/UnityEngine.UI.ref.dll_01958F46DE82E516.mvfrm
Library/Bee/artifacts/mvdfrm/UnityEditor.Graphs.dll_9A415AD70C711D86.mvfrm
Library/Bee/artifacts/mvdfrm/UnityEditor.CoreModule.dll_6B0B6BDA2236E754.mvfrm
Library/Bee/artifacts/mvdfrm/UnityEditor.DeviceSimulatorModule.dll_D911D4F016B6D2AD.mvfrm
Library/Bee/artifacts/mvdfrm/UnityEditor.DiagnosticsModule.dll_E82BF5198E6311BB.mvfrm
Library/Bee/artifacts/mvdfrm/UnityEditor.GraphViewModule.dll_3A2F84E7CA82CC32.mvfrm
Library/Bee/artifacts/mvdfrm/UnityEditor.PackageManagerUIModule.dll_547F5CEC300373B0.mvfrm
Library/Bee/artifacts/mvdfrm/UnityEditor.QuickSearchModule.dll_733B7626E73A0E14.mvfrm
Library/Bee/artifacts/mvdfrm/UnityEditor.SceneTemplateModule.dll_BF9C8E6B71169715.mvfrm
Library/Bee/artifacts/mvdfrm/UnityEditor.TextCoreFontEngineModule.dll_2DE12ACCFD716A52.mvfrm
Library/Bee/artifacts/mvdfrm/UnityEditor.TextCoreTextEngineModule.dll_75C9613E8CF52370.mvfrm
Library/Bee/artifacts/mvdfrm/UnityEditor.UIBuilderModule.dll_8EB832043D3B4566.mvfrm
Library/Bee/artifacts/mvdfrm/UnityEditor.UIElementsModule.dll_A9DDD701B3BFFE10.mvfrm
Library/Bee/artifacts/mvdfrm/UnityEditor.UIElementsSamplesModule.dll_CE7DED74DCA8B45D.mvfrm
Library/Bee/artifacts/mvdfrm/UnityEditor.UIServiceModule.dll_C7AA436726729580.mvfrm
Library/Bee/artifacts/mvdfrm/UnityEditor.UnityConnectModule.dll_21E3087433BB400A.mvfrm
Library/Bee/artifacts/mvdfrm/UnityEditor.dll_0DF2005E2875A201.mvfrm
Library/Bee/artifacts/mvdfrm/UnityEngine.AIModule.dll_9E128E757F5F1328.mvfrm
Library/Bee/artifacts/mvdfrm/UnityEngine.AccessibilityModule.dll_F241FA02718CBEB2.mvfrm
Library/Bee/artifacts/mvdfrm/UnityEngine.AndroidJNIModule.dll_2826BFD4FCDF6CE6.mvfrm
Library/Bee/artifacts/mvdfrm/UnityEngine.AnimationModule.dll_08B50110A4DFA0D8.mvfrm
Library/Bee/artifacts/mvdfrm/UnityEngine.AssetBundleModule.dll_B724A91849A0C306.mvfrm
Library/Bee/artifacts/mvdfrm/UnityEngine.AudioModule.dll_D4273D3926A10BCA.mvfrm
Library/Bee/artifacts/mvdfrm/UnityEngine.ClothModule.dll_3B0F9A3400BDEAAE.mvfrm
Library/Bee/artifacts/mvdfrm/UnityEngine.ClusterInputModule.dll_A17F7D89E54312D0.mvfrm
Library/Bee/artifacts/mvdfrm/UnityEngine.ClusterRendererModule.dll_DEBE97618671E031.mvfrm
Library/Bee/artifacts/mvdfrm/UnityEngine.CoreModule.dll_8E2C3F2CCA3C527F.mvfrm
Library/Bee/artifacts/mvdfrm/UnityEngine.CrashReportingModule.dll_A9BA1CA9C825EB77.mvfrm
Library/Bee/artifacts/mvdfrm/UnityEngine.DSPGraphModule.dll_BBA7C78FFF5A997D.mvfrm
Library/Bee/artifacts/mvdfrm/UnityEngine.DirectorModule.dll_B65666268CF9C85C.mvfrm
Library/Bee/artifacts/mvdfrm/UnityEngine.GIModule.dll_364ED7831B0DFB42.mvfrm
Library/Bee/artifacts/mvdfrm/UnityEngine.GameCenterModule.dll_527409EFC3205DD7.mvfrm
Library/Bee/artifacts/mvdfrm/UnityEngine.GridModule.dll_6B9D5B1AE290E876.mvfrm
Library/Bee/artifacts/mvdfrm/UnityEngine.HotReloadModule.dll_89FDBF168012BC5A.mvfrm
Library/Bee/artifacts/mvdfrm/UnityEngine.IMGUIModule.dll_0C86DC9FECD29FAB.mvfrm
Library/Bee/artifacts/mvdfrm/UnityEngine.ImageConversionModule.dll_4AB0951208969825.mvfrm
Library/Bee/artifacts/mvdfrm/UnityEngine.InputLegacyModule.dll_4869C436E19278F7.mvfrm
Library/Bee/artifacts/mvdfrm/UnityEngine.InputModule.dll_3A9D04E99CD9306E.mvfrm
Library/Bee/artifacts/mvdfrm/UnityEngine.JSONSerializeModule.dll_5259833E70C81F3C.mvfrm
Library/Bee/artifacts/mvdfrm/UnityEngine.LocalizationModule.dll_DFCC47DC7CBF05C9.mvfrm
Library/Bee/artifacts/mvdfrm/UnityEngine.ParticleSystemModule.dll_FCCC65F636377705.mvfrm
Library/Bee/artifacts/mvdfrm/UnityEngine.PerformanceReportingModule.dll_E9DF8E6D7738263E.mvfrm
Library/Bee/artifacts/mvdfrm/UnityEngine.Physics2DModule.dll_555AF10145DC986D.mvfrm
Library/Bee/artifacts/mvdfrm/UnityEngine.PhysicsModule.dll_73F711E031E273DB.mvfrm
Library/Bee/artifacts/mvdfrm/UnityEngine.ProfilerModule.dll_E89C9F5D26534F69.mvfrm
Library/Bee/artifacts/mvdfrm/UnityEngine.RuntimeInitializeOnLoadManagerInitializerModule.dll_93C4FD609CF26336.mvfrm
Library/Bee/artifacts/mvdfrm/UnityEngine.ScreenCaptureModule.dll_6C4130C385344B9E.mvfrm
Library/Bee/artifacts/mvdfrm/UnityEngine.SharedInternalsModule.dll_CEC1D3E77FC49375.mvfrm
Library/Bee/artifacts/mvdfrm/UnityEngine.SpriteMaskModule.dll_3BA07C7FE48FF351.mvfrm
Library/Bee/artifacts/mvdfrm/UnityEngine.SpriteShapeModule.dll_D085D672FF42FB10.mvfrm
Library/Bee/artifacts/mvdfrm/UnityEngine.StreamingModule.dll_BD49EE60F4675816.mvfrm
Library/Bee/artifacts/mvdfrm/UnityEngine.SubstanceModule.dll_99F502AA3FBA5624.mvfrm
Library/Bee/artifacts/mvdfrm/UnityEngine.SubsystemsModule.dll_A64DE2E1B2D7DB64.mvfrm
Library/Bee/artifacts/mvdfrm/UnityEngine.TLSModule.dll_F1F0F4C5CC3FD5EF.mvfrm
Library/Bee/artifacts/mvdfrm/UnityEngine.TerrainModule.dll_8E3D8D4F07A0BCC9.mvfrm
Library/Bee/artifacts/mvdfrm/UnityEngine.TerrainPhysicsModule.dll_FD470EC94F7A7192.mvfrm
Library/Bee/artifacts/mvdfrm/UnityEngine.TextCoreFontEngineModule.dll_AC40A620106F291D.mvfrm
Library/Bee/artifacts/mvdfrm/UnityEngine.TextCoreTextEngineModule.dll_F428DC919FF2E23B.mvfrm
Library/Bee/artifacts/mvdfrm/UnityEngine.TextRenderingModule.dll_9580A2CE3C6BCB93.mvfrm
Library/Bee/artifacts/mvdfrm/UnityEngine.TilemapModule.dll_2D39F4D01F5D9DD2.mvfrm
Library/Bee/artifacts/mvdfrm/UnityEngine.UIElementsModule.dll_AA8C4449B604175B.mvfrm
Library/Bee/artifacts/mvdfrm/UnityEngine.UIElementsNativeModule.dll_9EF91181A17BE3D2.mvfrm
Library/Bee/artifacts/mvdfrm/UnityEngine.UIModule.dll_99862CA2DBA618D4.mvfrm
Library/Bee/artifacts/mvdfrm/UnityEngine.UNETModule.dll_20D28716174B47F8.mvfrm
Library/Bee/artifacts/mvdfrm/UnityEngine.UmbraModule.dll_4EFBE951B3C7B73D.mvfrm
Library/Bee/artifacts/mvdfrm/UnityEngine.UnityAnalyticsCommonModule.dll_851E4BB19120C49C.mvfrm
Library/Bee/artifacts/mvdfrm/UnityEngine.UnityAnalyticsModule.dll_1C6BD6BFE25EC901.mvfrm
Library/Bee/artifacts/mvdfrm/UnityEngine.UnityConnectModule.dll_0F428C832E4340B5.mvfrm
Library/Bee/artifacts/mvdfrm/UnityEngine.UnityCurlModule.dll_3BD1A24214F392C5.mvfrm
Library/Bee/artifacts/mvdfrm/UnityEngine.UnityTestProtocolModule.dll_8A40A36736A409B3.mvfrm
Library/Bee/artifacts/mvdfrm/UnityEngine.UnityWebRequestAssetBundleModule.dll_D28B6B601D904492.mvfrm
Library/Bee/artifacts/mvdfrm/UnityEngine.UnityWebRequestAudioModule.dll_61DBE24BFDA2F0D6.mvfrm
Library/Bee/artifacts/mvdfrm/UnityEngine.UnityWebRequestModule.dll_5C4F9CBC138B32A4.mvfrm
Library/Bee/artifacts/mvdfrm/UnityEngine.UnityWebRequestTextureModule.dll_5BC3FCF2060F9D6B.mvfrm
Library/Bee/artifacts/mvdfrm/UnityEngine.UnityWebRequestWWWModule.dll_BEEB21ED8FB29EA7.mvfrm
Library/Bee/artifacts/mvdfrm/UnityEngine.VFXModule.dll_72CF8D34A2AD3F5C.mvfrm
Library/Bee/artifacts/mvdfrm/UnityEngine.VRModule.dll_EC5853287D609E4C.mvfrm
Library/Bee/artifacts/mvdfrm/UnityEngine.VehiclesModule.dll_2E195FA6072397F7.mvfrm
Library/Bee/artifacts/mvdfrm/UnityEngine.VideoModule.dll_F930C1A3E933276F.mvfrm
Library/Bee/artifacts/mvdfrm/UnityEngine.VirtualTexturingModule.dll_C385C5F07A2A645D.mvfrm
Library/Bee/artifacts/mvdfrm/UnityEngine.WindModule.dll_047B1A555B72D0E8.mvfrm
Library/Bee/artifacts/mvdfrm/UnityEngine.XRModule.dll_1F17162D069AEBAA.mvfrm
Library/Bee/artifacts/mvdfrm/UnityEngine.dll_4096473686E92EE6.mvfrm
Library/Bee/artifacts/mvdfrm/Unity.Android.Gradle.dll_B740464C3CA6DB3C.mvfrm
Library/Bee/artifacts/mvdfrm/Unity.Android.Types.dll_E1DF8194397626C0.mvfrm
Library/Bee/artifacts/mvdfrm/UnityEditor.Android.Extensions.dll_8637EF8201BBE4FC.mvfrm
Library/Bee/artifacts/mvdfrm/UnityEditor.LinuxStandalone.Extensions.dll_FB2B1DDC5C8F39BC.mvfrm
Library/Bee/artifacts/mvdfrm/UnityEditor.WebGL.Extensions.dll_E7079790E50A9E9C.mvfrm
Library/Bee/artifacts/mvdfrm/Unity.Burst.Cecil.Mdb.dll_9409E64CA126E9E8.mvfrm
Library/Bee/artifacts/mvdfrm/Unity.Burst.Cecil.Pdb.dll_AB5C5EBC1FDBEB6B.mvfrm
Library/Bee/artifacts/mvdfrm/Unity.Burst.Cecil.Rocks.dll_838806415CC3D6EB.mvfrm
Library/Bee/artifacts/mvdfrm/Unity.Burst.Cecil.dll_2DE6CE42223983EB.mvfrm
Library/Bee/artifacts/mvdfrm/Unity.Burst.Unsafe.dll_BC406F07D48FC838.mvfrm
Library/Bee/artifacts/mvdfrm/Unity.Plastic.Antlr3.Runtime.dll_56E0E00E347BD10B.mvfrm
Library/Bee/artifacts/mvdfrm/Unity.Plastic.Newtonsoft.Json.dll_9A2C63F686D0B9FA.mvfrm
Library/Bee/artifacts/mvdfrm/Unity.VisualScripting.IonicZip.dll_3BDBEAD27A733EE4.mvfrm
Library/Bee/artifacts/mvdfrm/Unity.VisualScripting.YamlDotNet.dll_D64D80A119DD74D8.mvfrm
Library/Bee/artifacts/mvdfrm/Unity.VisualScripting.TextureAssets.dll_6D6BA9F4DAAAD2D0.mvfrm
Library/Bee/artifacts/mvdfrm/Unity.VisualScripting.Antlr3.Runtime.dll_87BAA7824AA684F7.mvfrm